…
         fbg_sd = as.numeric(fbg_sd),
         sbp = as.numeric(sbp),
         sbp_sd = as.numeric(sbp_sd),
         dbp = as.numeric(dbp),
         dbp_sd = as.numeric(dbp_sd),
         bmi = as.numeric(bmi),
         bmi_sd = as.numeric(bmi_sd),
         hypertension = as.numeric(hypertension),
         diabetes = as.numeric(diabetes)
         ) %>% 
  select(ceb, fbg, sbp, dbp, bmi)
outcome_data
```

    ## # A tibble: 134 x 5
    ##      ceb   fbg   sbp   dbp   bmi
    ##    <dbl> <dbl> <dbl> <dbl> <dbl>
    ##  1     1 123.    127    85    26
    ##  2     2 110.    126    82    26
    ##  3     3 111.    127    84    25
    ##  4     4 113.    137    84    26
    ##  5     5 113.    132    86    24
    ##  6   108 117     134    85    27
    ##  7   110 118.    130    85    29
    ##  8     6  98.6   126    83    23
    ##  9     7 154.    132    85    24
    ## 10     8 106.    126    85    25
    ## # … with 124 more rows
…
  outcome_data %>% 
  mutate(bmi_cat = ifelse(bmi >=25, "obese", 
                          ifelse(bmi>=23 & bmi<=24.9, "overweight",
                          "normal")),
         fbg_cat = ifelse(fbg >=126, "diabetes", 
                          ifelse(fbg>=110 & fbg<=125.9, "prediabetes",
                          "normal")),
         hyp_cat = ifelse(sbp <120 | dbp<80, "normal", 
                          ifelse(sbp>=120 & fbg<=155.9 | dbp>=90 & fbg<=99.9, "hypertensive",
                          "hypertension"))
         )
outcome_two_data
```

    ## # A tibble: 134 x 8
    ##      ceb   fbg   sbp   dbp   bmi bmi_cat    fbg_cat     hyp_cat     
    ##    <dbl> <dbl> <dbl> <dbl> <dbl> <chr>      <chr>       <chr>       
    ##  1     1 123.    127    85    26 obese      prediabetes hypertensive
    ##  2     2 110.    126    82    26 obese      normal      hypertensive
    ##  3     3 111.    127    84    25 obese      prediabetes hypertensive
    ##  4     4 113.    137    84    26 obese      prediabetes hypertensive
    ##  5     5 113.    132    86    24 overweight prediabetes hypertensive
    ##  6   108 117     134    85    27 obese      prediabetes hypertensive
    ##  7   110 118.    130    85    29 obese      prediabetes hypertensive
    ##  8     6  98.6   126    83    23 overweight normal      hypertensive
    ##  9     7 154.    132    85    24 overweight diabetes    hypertensive
    ## 10     8 106.    126    85    25 obese      normal      hypertensive
    ## # … with 124 more rows
…
